R语言入门 - tidyverse 生态链
…
data %>% 
  func_1(arg1 = haha) %>%
  func_2(arg2 = huhu) %>%
  func_3(arg3 = hoho)

逻辑链条变得清晰易懂.

filter: 筛选行

filter 是一个用于筛选行的函数，例如我们想筛出排量大于等于 5 且每加仑行驶的高速里程小于 20 的车:

mpg %>% 
  filter(displ >= 5, hwy < 20)

## # A tibble: 29 x 11
##    manufacturer model     displ  year   cyl trans  drv     cty   hwy fl    class
##    <chr>        <chr>     <dbl> <int> <int> <chr>  <chr> <int> <int> <chr> <chr>
##  1 chevrolet    c1500 su~   5.3  2008     8 auto(~ r        11    15 e     suv  
##  2 chevrolet    c1500 su~   5.7  1999     8 auto(~ r        13    17 r     suv  
##  3 chevrolet    c1500 su~   6    2008     8 auto(~ r        12    17 r     suv  
##  4 chevrolet    k1500 ta~   5.3  2008     8 auto(~ 4        14    19 r     suv  
##  5 chevrolet    k1500 ta~   5.3  2008     8 auto(~ 4        11    14 e     suv  
##  6 chevrolet    k1500 ta~   5.7  1999     8 auto(~ 4        11    15 r     suv  
##  7 chevrolet    k1500 ta~   6.5  1999     8 auto(~ 4        14    17 d     suv  
##  8 dodge        dakota p~   5.2  1999     8 manua~ 4        11    17 r     pick~
##  9 dodge        dakota p~   5.2  1999     8 auto(~ 4        11    15 r     pick~
## 10 dodge        durango ~   5.2  1999     8 auto(~ 4        11    16 r     suv  
## # ... with 19 more rows

arrange: 排序

得到了这些排量大且耗油的车, 我们想按照出厂年份降序排列, 行驶的里程数升序排列:

mpg %>% 
  filter(displ >= 5, hwy < 20) %>%
  arrange(desc(year), hwy)

## # A tibble: 29 x 11
##    manufacturer model     displ  year   cyl trans  drv     cty   hwy fl    class
##    <chr>        <chr>     <dbl> <int> <int> <chr>  <chr> <int> <int> <chr> <chr>
##  1 chevrolet    k1500 ta~   5.3  2008     8 auto(~ 4        11    14 e     suv  
##  2 jeep         grand ch~   6.1  2008     8 auto(~ 4        11    14 p     suv  
##  3 chevrolet    c1500 su~   5.3  2008     8 auto(~ r        11    15 e     suv  
##  4 chevrolet    c1500 su~   6    2008     8 auto(~ r        12    17 r     suv  
##  5 dodge        ram 1500~   5.7  2008     8 auto(~ 4        13    17 r     pick~
##  6 ford         f150 pic~   5.4  2008     8 auto(~ 4        13    17 r     pick~
##  7 dodge        durango ~   5.7  2008     8 auto(~ 4        13    18 r     suv  
##  8 ford         expediti~   5.4  2008     8 auto(~ r        12    18 r     suv  
##  9 jeep         grand ch~   5.7  2008     8 auto(~ 4        13    18 r     suv  
## 10 lincoln      navigato~   5.4  2008     8 auto(~ r        12    18 r     suv  
## # ... with 19 more rows

select: 选择列

这 11 个变量太多, 我们只关心车型, 那么可以通过 select 函数把这一个变量单独提出来

mpg %>% 
  filter(displ >= 5, hwy < 20) %>%
  arrange(desc(year), hwy) %>%
  select(model)

## # A tibble: 29 x 1
##    model              
##    <chr>              
##  1 k1500 tahoe 4wd    
##  2 grand cherokee 4wd 
##  3 c1500 suburban 2wd 
##  4 c1500 suburban 2wd 
##  5 ram 1500 pickup 4wd
##  6 f150 pickup 4wd    
##  7 durango 4wd        
##  8 expedition 2wd     
##  9 grand cherokee 4wd 
## 10 navigator 2wd      
## # ... with 19 more rows

mutate: 生成新列

我们回到原来的 mpg 数据集, 按照常识, 排气管越多, 排量越大. 我们想生成一个新变量来看一看每根排气管的平均排气量是不是很接近:

mpg %>% 
  mutate(ave_displ = displ / cyl)  %>% 
  select(ave_displ)

## # A tibble: 234 x 1
##    ave_displ
##        <dbl>
##  1     0.45 
##  2     0.45 
##  3     0.5  
##  4     0.5  
##  5     0.467
##  6     0.467
##  7     0.517
##  8     0.45 
##  9     0.45 
## 10     0.5  
## # ... with 224 more rows
…
